Label;indegree;Label;outdegree;Label;degree;Label;betweeness centrality
it;3;i;10;it;12;it;43
option;3;it;9;i;10;battery saver;24
battery saver;2;you;6;battery saver;6;setting page;20
do not disturb;2;battery saver;4;you;6;straight;18
