Cause,Cause:1,Verb,Effect:1,Effect:3,Effect:4,Effect:10,Effect:11,Effect:12,Effect:13,Effect:14
Battery saver,,  be,,,,,,,,
I,,ve  set,,battery saver,,,to activate when,,,
Level,,  go,,,,below 30,,,,
People,,  when,,,,at middle,of night,,,
People,,  activate,,This,,,,,,
mobile,,  go,,,,into kind,of deep sleep mode,,,
I,,  guess,,,,,,,,
It,,  show,,missed alarm,in notification,,,,,
It,,   ,,,,,,,,
It,,  after off,,,,turning off auto activate,of battery saver mode,,,
I,,  guess,,,,after hour,of battery saving mode,,,
It,,  go,,,,into deep sleep,,,,
Anyone,,  have,,any idea how,to solve it,,,,,
Anyone,,  be,,,,,,,,
Anyone,,  it,,,,,,,,
"Anyone,,""  "
" "",,,,,,,,"
I,,  have,,suggestion,,,,,,
Anyone,,  should,,,,,,,,
I,,  report,,it,,in feedback section,,,,
"I,,""  "
" "",,,,,,,,"
This,,  be,,,,straight,from setting page,of battery saver,,
Battery Saver,,  turn off,,some device features,,,,,,
Battery Saver,,  turn off,,restrict apps,,,,,,
You,,  want to function,,,,,,,,
Sleep,,  need to be,,,,OFF,of optimized list,,,
I,,  switch,,OFF battery saver,,,,,,
I,,  know,,,,,,,,
Battery saver,,  restrict,,some app functions,,,,,,
Call,,  be,,,,,,,,
Some crucial functions,,  have to be,,,,smart enough,to keep them always active,,,
OS,,  have to be,,,,smart enough,to keep them always active,,,
Messages,,  be,,,,,,,,
Alarms,,  be,,,,,,,,
I,,  check,,,,,,,,
clock app,,  be,,,,by default not optimized,for battery,,,
I,,  think,,,,,,,,
I,,  turn on,,,,,,,,
I,,  turn on,,,,silent,,,,
I,,  but,,,,,,,,
My alarm / timer,,would  work,,,,before update  ,from Pie,,,
,,  after,,,,updating,to Beta 5,,,
It,,  be,a bug,,,,,,,
I,,  update,,official android,,,,,,
I,,  have,,same problem,,,,,,
,,  reboot,,your phone,,into safe mode,,,,
,,  go,,app preference,,to settings   system   reset option,,,,
,,  try,,,,,to set alarm,,,
It,,  work,,,,,,,,
reason,,  why,,,,,,,,
It,,  send,,All firing alarm notification,,to silent notification,by default,,,
update,,  be,Android10,,,by default locks your alarm notification settings,,,,
Properlye,,  see,,,,how,,,,
You,,can  fix,,installed Android app,,,,,,
You,,can  set,,snooze alarms,,,,,,
You,,   ,,,,,,,,
You,,  see,,,,cancel snooze alarms,,,,
You,,  see,,alarms,,,,,,
,,  find,,solution,for me,,,,,
Pixel,,  have in,,flip,to shh setting in,do not disturb,,,,
Which,,  set,,it,,to DND,,,,
Which,,  flip,,It,,,,,,
I,,  have,,disabled alarms,,do not disturb,,,,
 long pressing do not disturb button,,  locate,,This,,,,,,
,,  enable,,alarms,,,,,,
 ,,  disable,,flip,,to setting,in schedules,,,
Which,,  be,,,,very non,,,,
,,  keep up,,your pixel,,,to have,,,
Alarms,,  go off,,,,,,,,
,,  turn on,,ultra power saving mode,,,,,,
You,,have  add,,it,,as additional app,on UPSM home screen,,,
default ones,,  be,Phone,,,with option,to add 3 more,,,
alarm icon,,  show,,,,in top right,of notifications bar,,,
default ones,,  be,Messages,,,with option,to add 3 more,,,
default ones,,  be,Internet,,,with option,to add 3 more,,,
You,,  have to add,,,,it there,in order,for,,
alarm,,to  go off,,,,in UPS mode,,,,
"alarm,,""  "
"  "",,,,,,,,"
alarm,,  mate,,,,,,,,
It,,  happen,,,,to me,,,,
I,,  have to add,,,,alarm,to UPSM home screen,to get it,,
clock,,did  sound,,,,after update,,,,
My alarm / timer,,would  work,,,,before update from Pie,to android 10 beta 5,,,
installed Android app,,is not work,,  Android Help  ,,,,,,
People,,  see,,,,,,,,
People,,can  Set,,You,,,,,,
 ,,  see,,cancel,,,,,,
 ,,  see,,snooze alarms,,,,,,
You,,  find,,,,,,,,
It,,  necessary,,,,,,,,
You,,can  consult,,  Clock Help Center,,,,,,
I,,  upgrade,,,,to Android 10,,,,
I,,   ,,,,,,,,
my alarm clock,,  be,,,,silent,,,,
Timer,,  be,,,,silent,,,,
Pixel,,  have in,, flip,to shh  setting in,do not disturb .,,,,
 ,,  disable in,,flip,,to setting in,,,,
 ,,  schedule,,,,,,,,
While using phone ,in power saving mode  alarm clock, not ring,,,,While using phone,in power saving mode ,,,
It,,may  be,,,,possible,,,,
You,,have  restrict,,alarm clock,,in power saving mode,,,,
,,  be,no option,,,of restriction,of alarm clock,,,
,,  check,,,,in your phone,,,,
Alarm clock,,is  work,,,,in case,,,,
Phone,,is  switch off,,,,,,,,
It,,  be,a feature,,,,,,,
,,  in,,,,MID Alarm clock work,,,,
I,,am  use,,it,,,,,,
It,,is  work,,,,in mid power saving mode,,,,
,,  thank,,u,,,,,,
I,,should  be,work,,,in Max power saving mode,,,,
Alarm clock,,  work,,,,,,,,
Alarm clock,,  switch off,,Phone,,,,,,
alarm,,  honestly,,,,,,,,
Your best bet,,  be,,,,,to try it,,,
,,  set off,,alarm,,,to go off,in few minutes ,without adding app,to UPSM
I,,  do,,,,,,,,
I,,  turn,,UPSM,,I set my alarm,,,,
This,,  be,a glitch,,,,,,,
You,,  set,,it,,as one,of your apps,,,
,,  good,,,,,to know,in case,,
I,,  need to use,,,,UPSM,in future,,,
I,,will  be,,,,sure,to add it,to home screen,,
